…
We select the first resource and read it directly in R

search_datasets("ACLED Mali", rows = 2) %>%
  nth(1) %>%
  get_resources() %>%
  nth(1) %>%
  read_session(filename = "acled_mali.csv", hxl = TRUE)

## # A tibble: 2,422 x 30
##    data_id   iso event_id_cnty event_id_no_cnty event_date  year
##  *   <dbl> <dbl> <chr>                    <dbl> <date>     <dbl>
##  1 2350101   466 MLI2512                   2512 2018-12-15  2018
##  2 2350100   466 MLI2510                   2510 2018-12-14  2018
##  3 2350099   466 MLI2511                   2511 2018-12-14  2018
##  4 2350096   466 MLI2507                   2507 2018-12-13  2018
##  5 2350097   466 MLI2509                   2509 2018-12-13  2018
##  6 2350098   466 MLI2506                   2506 2018-12-13  2018
##  7 2350095   466 MLI2505                   2505 2018-12-13  2018
##  8 2350094   466 MLI2508                   2508 2018-12-13  2018
##  9 2350091   466 MLI2501                   2501 2018-12-12  2018
## 10 2350090   466 MLI2504                   2504 2018-12-12  2018
## # ... with 2,412 more rows, and 24 more variables: time_precision <dbl>,
## #   event_type <chr>, actor1 <chr>, assoc_actor_1 <chr>, inter1 <dbl>,
## #   actor2 <chr>, assoc_actor_2 <chr>, inter2 <dbl>, interaction <dbl>,
## #   region <chr>, country <chr>, admin1 <chr>, admin2 <chr>, admin3 <chr>,
## #   location <chr>, latitude <dbl>, longitude <dbl>, geo_precision <dbl>,
## #   source <chr>, source_scale <chr>, notes <chr>, fatalities <dbl>,
## #   timestamp <dbl>, iso3 <chr>
…
Now let’s see where we have these conflicts in Mali

First step: just select the coordinates

acled_mali %>%
  select(longitude, latitude) %>%
  distinct() -> acled_mali_coord
acled_mali_coord

## # A tibble: 557 x 2
##    longitude latitude
##        <dbl>    <dbl>
##  1    -4.43      15.2
##  2    -4.50      14.2
##  3    -8         12.6
##  4    -3.48      15.1
##  5    -0.844     16.1
##  6    -2.86      16.2
##  7     0.992     16.4
##  8    -4.35      16.5
##  9     2.55      15.5
## 10     0.830     20.5
## # ... with 547 more rows
…
